# This file uses centimeters as units for non-parametric coordinates.

v 0.141550 -3.341726 0.026851
v 0.616776 -0.920643 0.214106
v 0.439244 -0.133562 0.499901
v 0.243492 -0.904026 0.557247
v 0.593615 -0.435227 0.031859
v 0.282830 -2.122130 -0.245470
v 0.088880 -2.292685 -0.368513
v -0.295949 -1.776143 -0.538118
v 0.547848 -0.121177 -0.002310
v -0.444001 -1.065951 -0.618370
v -0.647116 -0.830824 -0.562228
v -0.716788 -1.881670 -0.111003
v -0.975488 -1.190313 -0.148738
v -0.132565 -3.278004 -0.102189
v 0.065937 -3.300859 -0.103131
v -0.158853 -1.031728 0.475764
v -0.580778 -0.584467 0.296680
v -0.887234 -1.135014 0.013442
v -0.243703 -3.110302 0.016431
v -0.027884 -0.851637 0.538805
v -0.358406 0.198822 0.419879
v -0.300255 1.448134 -0.233330
v 0.018376 1.474397 -0.231594
v -0.477549 1.389849 0.010875
v 0.007405 3.562139 0.115906
v -0.002063 -3.516935 -0.033499
v 0.054850 -3.528429 -0.016662
v -0.087698 -3.408450 -0.043228
v 0.097036 -3.461759 0.009304
v 0.014947 -3.432171 -0.066716
v 0.048501 -0.967675 0.527445
v -0.046370 -3.233254 0.034944
v 0.004131 -3.438975 -0.001471
v 0.030577 -3.536229 -0.024659
v -0.110791 -3.361764 -0.019809
v 0.120226 -3.385725 0.017810
v 0.035787 -3.379463 -0.082144
v -0.101592 -3.367293 -0.068436
v -0.016665 -3.352617 0.012469
v 0.203482 -3.089832 0.049877
v 0.158319 -3.080244 0.101163
v 0.186725 -3.096734 -0.037085
v -0.241151 -3.041810 -0.107655
v -0.159727 -3.060934 -0.173861
v 0.067799 -3.093816 -0.164828
v -0.244355 -3.022267 0.047283
v -0.280144 -3.019296 0.019817
v -0.038983 -3.047823 0.078126
v 0.131930 2.567167 0.228599
v -0.153428 2.614741 0.175831
v 0.169885 2.555303 0.095368
v 0.023583 2.579283 -0.051216
v -0.204109 2.621858 0.100674
v -0.118355 2.603926 -0.056143
v -0.031858 3.527789 0.116583
v 0.026325 3.523584 0.142118
v -0.012086 3.523843 0.138196
v 0.027559 3.522363 0.111588
v 0.012654 3.523060 0.099087
v -0.006404 3.525672 0.092745
v 0.077473 -3.500590 -0.003444
v -0.038134 -3.473300 -0.037634
v 0.014823 -3.484819 -0.008145
v 0.023933 -3.488554 -0.046909
vt 0.171479 0.271840
vt 0.176433 0.284865
vt 0.173040 0.286328
vt 0.202991 0.059976
vt 0.176659 0.148707
vt 0.167996 0.121985
vt 0.197248 0.004883
vt 0.202368 0.005384
vt 0.235513 0.079469
vt 0.215093 0.051425
vt 0.242131 0.115970
vt 0.179765 0.165571
vt 0.152137 0.168046
vt 0.282293 0.109268
vt 0.251937 0.128401
vt 0.265576 0.069842
vt 0.871181 0.133977
vt 0.882087 0.142421
vt 0.876803 0.144808
vt 0.860918 0.136245
vt 0.864497 0.147256
vt 0.855034 0.147958
vt 0.852894 0.134217
vt 0.212575 0.006564
vt 0.226229 0.007445
vt 0.151044 0.284659
vt 0.151336 0.289646
vt 0.148921 0.289465
vt 0.671553 0.454876
vt 0.695142 0.431453
vt 0.703031 0.440989
vt 0.685617 0.496389
vt 0.717153 0.437835
vt 0.729151 0.479301
vt 0.162434 0.288169
vt 0.161613 0.277991
vt 0.706584 0.434705
vt 0.230073 0.250619
vt 0.212577 0.251298
vt 0.246961 0.251137
vt 0.703897 0.625412
vt 0.688120 0.627228
vt 0.196960 0.310849
vt 0.189702 0.312890
vt 0.621375 0.058508
vt 0.620374 0.056267
vt 0.621408 0.056213
vt 0.683253 0.627871
vt 0.667218 0.561599
vt 0.638698 0.422880
vt 0.648761 0.425247
vt 0.215932 0.313223
vt 0.208295 0.311509
vt 0.622475 0.056345
vt 0.624193 0.057021
vt 0.162947 0.271412
vt 0.170266 0.269484
vt 0.168960 0.265420
vt 0.163960 0.266689
vt 0.164485 0.264202
vt 0.167807 0.263281
vt 0.853895 0.131707
vt 0.860941 0.131612
vt 0.866725 0.127383
vt 0.868073 0.129670
vt 0.860994 0.128460
vt 0.157617 0.270800
vt 0.165110 0.261270
vt 0.161220 0.264496
vt 0.163234 0.262202
vt 0.860407 0.123516
vt 0.863019 0.125072
vt 0.859603 0.125539
vt 0.858385 0.122987
vt 0.854845 0.127499
vt 0.855871 0.125285
vt 0.869917 0.127690
vt 0.232209 0.007403
vt 0.239580 0.005734
vt 0.292624 0.105076
vt 0.158463 0.267880
vt 0.883533 0.134903
vt 0.706706 0.319463
vt 0.710179 0.318190
vt 0.743767 0.433243
vt 0.850276 0.148019
vt 0.682330 0.322996
vt 0.684779 0.323001
vt 0.695997 0.321431
vt 0.887826 0.137922
vt 0.009751 0.005422
vt 0.025530 0.004883
vt 0.012566 0.055031
vt 0.010550 0.054658
vt 0.604469 0.007229
vt 0.611566 0.004883
vt 0.618845 0.056811
vt 0.004883 0.005638
vt 0.008976 0.054861
vt 0.622767 0.005275
vt 0.630364 0.006842
vt 0.224977 0.316685
vt 0.639464 0.010094
vt 0.010733 0.057191
vt 0.166476 0.261715
vt 0.857105 0.123639
f 1/1 40/2 41/3
f 6/4 5/5 2/6 40/7 42/8
f 8/9 5/5 6/4 7/10
f 10/11 9/12 5/5 8/9
f 2/6 5/5 9/12 3/13
f 13/14 11/15 10/11 12/16
f 14/17 43/18 44/19
f 10/11 8/9 12/16
f 15/20 45/21 42/22 1/23
f 7/10 45/24 44/25 8/9
f 19/26 46/27 47/28
f 17/29 16/30 20/31 21/32
f 4/33 3/34 21/32 20/31
f 1/1 41/3 48/35 32/36
f 4/33 20/31 16/30 31/37
f 10/11 11/15 22/38 23/39
f 11/15 13/14 24/40 22/38
f 21/32 3/34 49/41 50/42
f 3/13 9/12 51/43 49/44
f 25/45 58/46 59/47
f 23/39 9/12 10/11
f 17/29 21/32 50/42 53/48 24/49
f 17/29 24/49 13/50 18/51
f 23/39 22/38 54/52 52/53
f 25/45 60/54 55/55
f 32/36 39/56 36/57 1/1
f 29/58 33/59 63/60 61/61
f 1/23 36/62 37/63 15/20
f 28/64 38/65 37/63 30/66
f 32/36 48/35 46/27 19/26
f 19/26 35/67 39/56 32/36
f 34/68 63/60 62/69 26/70
f 26/71 62/72 64/73 34/74
f 30/66 29/75 61/76 64/73
f 28/64 35/77 38/65
f 12/16 43/78 47/79 18/80
f 13/14 12/16 18/80
f 36/57 39/56 33/59 29/58
f 37/63 36/62 29/75 30/66
f 37/63 38/65 14/17 15/20
f 39/56 35/67 28/81 33/59
f 38/65 35/77 19/82 14/17
f 41/83 40/84 2/85 3/34 4/33
f 42/22 40/86 1/23
f 44/25 43/78 12/16 8/9
f 42/8 45/24 7/10 6/4
f 44/19 45/21 15/20 14/17
f 47/87 46/88 16/30 17/29 18/51
f 48/89 41/83 4/33 31/37
f 46/88 48/89 31/37 16/30
f 47/90 43/18 14/17 19/82
f 50/91 49/92 56/93 57/94
f 49/95 51/96 58/46 56/97
f 52/53 51/43 9/12 23/39
f 53/98 50/91 57/94 55/99
f 52/100 54/101 60/54 59/47
f 53/102 54/52 22/38 24/40
f 59/47 58/46 51/96 52/100
f 55/55 60/54 54/101 53/103
f 57/94 56/93 25/104
f 56/97 58/46 25/45
f 55/99 57/94 25/104
f 59/47 60/54 25/45
f 61/61 63/60 34/68 27/105
f 62/69 63/60 33/59 28/81
f 64/73 62/72 28/64 30/66
f 64/73 61/76 27/106 34/74
