# This file uses centimeters as units for non-parametric coordinates.

v 0.570107 0.052883 -1.188838
v 1.002579 -0.293978 -0.353509
v 0.635679 -1.395193 -0.261111
v 0.213053 -1.425040 -0.660223
v -0.509819 -1.325395 -0.463565
v -0.858875 0.112669 -1.049754
v -0.484315 -1.419318 0.054110
v -1.099766 -0.188037 0.085914
v -0.204066 -1.350291 0.494625
v -0.388111 0.199699 0.957603
v 0.436738 -1.403900 0.295633
v 0.532743 -0.314692 0.529186
v -0.248796 0.885750 0.540604
v 0.798621 0.550038 0.284597
v 1.113533 0.547851 -0.298963
v 0.383615 0.932851 -0.793876
v -0.619460 0.779344 -0.757234
v -1.025310 0.659490 0.092069
v 0.088020 1.542849 -0.009868
v 0.014125 -2.105242 -0.173650
v 0.135562 -1.317909 0.434339
v -0.031841 0.318516 0.903722
v 0.388340 0.798221 0.514696
v 0.043881 0.389860 -1.349253
v -1.043123 0.392213 -0.792542
v -1.166388 0.353689 -0.336358
v -1.045058 0.196765 0.330459
v -0.675820 0.328525 0.755125
v 0.066351 0.837748 0.562838
v 0.352702 -0.890229 -0.880401
v 0.819565 -0.957173 -0.299251
v 0.410330 -0.980803 0.464217
v 0.048697 -0.762024 0.622086
v -0.235831 -0.740862 0.704129
v -0.806347 -0.829366 -0.015779
v -0.771625 -0.429793 -0.769371
v 0.086900 -0.753704 -0.950564
v 0.035087 -1.479178 -0.619173
v -0.537933 -0.600238 -0.895757
v -0.685822 0.200016 -1.197624
v -0.301063 0.856285 -0.856412
v -0.323868 -1.455220 -0.547311
v 0.559626 -1.362056 0.088158
v 0.670741 -0.927991 0.140113
v 0.824983 -0.346613 0.081956
v 1.019528 0.487252 -0.046425
v 0.786807 0.619015 -0.688759
v -0.524203 -1.400203 -0.164746
v -0.816677 -0.697858 -0.261817
v -1.138651 -0.014122 -0.039894
v -1.044767 0.498920 0.214769
v -0.407124 0.621646 0.695945
v -0.147551 0.585791 0.784584
v 0.138847 0.486712 0.767827
v 0.696053 0.120183 0.385830
v 0.921161 0.033628 0.011564
v 1.089152 0.079721 -0.405814
v 0.780271 0.198141 -0.941730
v 0.039121 0.905651 -0.854250
v -0.345349 0.369764 -1.301398
v -0.260224 -0.672655 -0.950032
v -0.123966 -1.532257 -0.581589
v -0.010044 1.375272 0.174317
v 0.286847 1.309782 0.076533
v 0.392635 1.287578 -0.085042
v 0.233565 1.343066 -0.356273
v -0.107422 1.405109 -0.209835
v -0.162225 1.426174 0.026432
v 0.194679 1.328651 0.166474
v 0.090910 1.349283 0.178830
v -0.032040 1.398904 -0.291920
v 0.332661 1.331608 -0.220147
v 0.342078 1.297965 -0.006176
v 0.087587 1.395039 -0.335655
v 0.361037 -1.722216 -0.223259
v 0.113224 -1.782473 -0.416014
v -0.190586 -1.823926 -0.286060
v -0.218464 -1.810404 -0.067873
v -0.090332 -1.774285 0.145703
v 0.260602 -1.710880 0.100430
v 0.024573 -1.800505 -0.411899
v -0.158262 -1.838646 -0.366332
v -0.217011 -1.814991 -0.170290
v 0.076327 -1.751691 0.133313
v 0.316376 -1.715995 -0.029857
v -0.061376 -1.813755 -0.400750
vt 0.507023 0.599352
vt 0.477037 0.575569
vt 0.499294 0.557213
vt 0.524778 0.573659
vt 0.521783 0.672218
vt 0.534730 0.619249
vt 0.548036 0.626873
vt 0.539038 0.668307
vt 0.583156 0.682865
vt 0.560700 0.637587
vt 0.585226 0.622922
vt 0.600251 0.665312
vt 0.795118 0.293182
vt 0.753313 0.269673
vt 0.784086 0.244993
vt 0.803100 0.262680
vt 0.810640 0.294332
vt 0.820133 0.266445
vt 0.848988 0.263848
vt 0.853316 0.287570
vt 0.831624 0.285729
vt 0.836879 0.263915
vt 0.774413 0.361015
vt 0.788883 0.360833
vt 0.798297 0.378888
vt 0.777831 0.378890
vt 0.842706 0.344261
vt 0.865756 0.340065
vt 0.869108 0.364555
vt 0.846935 0.367367
vt 0.442181 0.632546
vt 0.468850 0.649149
vt 0.455575 0.671375
vt 0.430566 0.657491
vt 0.496793 0.703436
vt 0.519005 0.705329
vt 0.599541 0.705056
vt 0.608684 0.697179
vt 0.728291 0.359492
vt 0.732258 0.349128
vt 0.363856 0.079817
vt 0.380712 0.079760
vt 0.376439 0.112636
vt 0.371097 0.112988
vt 0.425500 0.085799
vt 0.442226 0.098539
vt 0.391613 0.119807
vt 0.387634 0.116495
vt 0.926091 0.959823
vt 0.903743 0.974545
vt 0.875066 0.933641
vt 0.881121 0.928418
vt 0.876710 0.969898
vt 0.858080 0.973342
vt 0.861097 0.936743
vt 0.868538 0.939231
vt 0.821835 0.972244
vt 0.788020 0.936139
vt 0.845764 0.919206
vt 0.850812 0.930931
vt 0.315703 0.079786
vt 0.361417 0.118925
vt 0.522024 0.546066
vt 0.538155 0.554317
vt 0.564730 0.588361
vt 0.554604 0.579919
vt 0.555358 0.556256
vt 0.560570 0.556184
vt 0.589302 0.575904
vt 0.578920 0.581144
vt 0.567258 0.555262
vt 0.572650 0.553640
vt 0.805326 0.226718
vt 0.814246 0.236640
vt 0.823711 0.239390
vt 0.834217 0.243500
vt 0.866330 0.257074
vt 0.841932 0.241265
vt 0.851853 0.237467
vt 0.818273 0.378141
vt 0.804940 0.358109
vt 0.484263 0.646458
vt 0.504618 0.668372
vt 0.474963 0.698370
vt 0.549399 0.666157
vt 0.559960 0.680742
vt 0.540884 0.705222
vt 0.765228 0.342214
vt 0.738439 0.330462
vt 0.732114 0.304601
vt 0.781283 0.338539
vt 0.450663 0.609437
vt 0.833725 0.320479
vt 0.860990 0.319194
vt 0.797134 0.347634
vt 0.374279 0.126562
vt 0.381885 0.113060
vt 0.518484 0.610289
vt 0.535337 0.573370
vt 0.760111 0.223115
vt 0.753342 0.242091
vt 0.748667 0.241480
vt 0.861343 0.918202
vt 0.855029 0.934747
vt 0.544845 0.573166
vt 0.763365 0.242174
vt 0.757876 0.242623
vt 0.876813 0.282723
vt 0.885327 0.321272
vt 0.889151 0.342457
vt 0.883301 0.367795
vt 0.395314 0.122991
vt 0.596766 0.614230
vt 0.606946 0.655813
vt 0.617809 0.680637
vt 0.397801 0.082647
vt 0.839766 0.974545
vt 0.448821 0.111315
vt 0.773020 0.237488
vt 0.767653 0.240593
vt 0.844652 0.032564
vt 0.849132 0.008384
vt 0.857328 0.011534
vt 0.833286 0.008373
vt 0.839792 0.004883
vt 0.734724 0.232392
vt 0.777174 0.234136
vt 0.862800 0.023439
vt 0.824776 0.014247
vt 0.543617 0.555088
vt 0.548916 0.556044
f 30/1 31/2 3/3 4/4
f 60/5 61/6 39/7 40/8
f 26/9 36/10 49/11 50/12
f 34/13 35/14 7/15 9/16
f 33/17 34/13 9/16 21/18
f 43/19 44/20 32/21 11/22
f 52/23 53/24 29/25 13/26
f 55/27 56/28 46/29 14/30
f 57/31 58/32 47/33 15/34
f 59/35 60/5 40/8 41/36
f 18/37 26/9 50/12 51/38
f 13/26 18/39 51/40 52/23
f 13/41 29/42 70/43 63/44
f 14/45 46/46 73/47 64/48
f 15/49 47/50 72/51 65/52
f 16/53 59/54 74/55 66/56
f 17/57 18/58 68/59 67/60
f 18/61 13/41 63/44 68/62
f 4/4 3/3 75/63 76/64
f 5/65 42/66 82/67 77/68
f 7/69 48/70 83/71 78/72
f 9/16 7/15 78/73 79/74
f 11/22 21/18 84/75 80/76
f 3/77 43/19 85/78 75/79
f 32/21 33/17 21/18 11/22
f 23/80 54/81 55/27 14/30
f 1/82 24/83 16/84
f 6/85 25/86 17/87
f 17/87 25/86 26/9 18/37
f 28/88 27/89 8/90 10/91
f 53/24 54/81 23/80 29/25
f 1/82 2/92 31/2 30/1
f 12/93 32/21 44/20 45/94
f 22/95 33/17 32/21 12/93
f 10/91 34/13 33/17 22/95
f 8/90 35/14 34/13 10/91
f 36/10 39/7 42/66 5/65
f 48/70 49/11 36/10 5/65
f 19/96 69/97 64/48
f 19/96 70/43 69/97
f 6/85 36/10 26/9 25/86
f 1/82 30/1 37/98 24/83
f 38/99 37/98 30/1 4/4
f 20/100 81/101 76/102
f 40/8 39/7 36/10 6/85
f 41/36 40/8 6/85 17/87
f 19/103 71/104 67/60
f 42/66 39/7 61/6 62/105
f 20/100 82/106 86/107
f 31/108 44/20 43/19 3/77
f 45/94 44/20 31/108 2/109
f 46/29 56/28 57/110 15/111
f 47/33 58/32 1/82 16/84
f 19/103 72/51 66/56
f 19/96 73/47 65/112
f 35/113 49/11 48/70 7/69
f 50/12 49/11 35/113 8/114
f 51/38 50/12 8/114 27/115
f 52/23 51/40 27/89 28/88
f 10/91 53/24 52/23 28/88
f 10/91 22/95 54/81 53/24
f 55/27 54/81 22/95 12/93
f 12/93 45/94 56/28 55/27
f 57/110 56/28 45/94 2/109
f 2/92 1/82 58/32 57/31
f 16/84 24/83 60/5 59/35
f 24/83 37/98 61/6 60/5
f 62/105 61/6 37/98 38/99
f 63/44 70/43 19/96
f 64/48 73/47 19/96
f 65/52 72/51 19/103
f 66/56 74/55 19/103
f 67/60 68/59 19/103
f 68/62 63/44 19/96
f 64/48 69/97 23/116 14/45
f 69/97 70/43 29/42 23/116
f 67/60 71/104 41/117 17/57
f 66/56 72/51 47/50 16/53
f 65/112 73/47 46/46 15/118
f 20/100 83/119 77/120
f 20/121 84/122 79/123
f 20/121 85/124 80/125
f 20/100 86/107 81/101
f 74/55 59/54 41/117 71/104
f 19/103 74/55 71/104
f 76/102 75/126 20/100
f 77/120 82/106 20/100
f 78/127 83/119 20/100
f 79/123 78/128 20/121
f 80/125 84/122 20/121
f 75/129 85/124 20/121
f 76/64 81/130 38/99 4/4
f 86/131 82/67 42/66 62/105
f 77/68 83/71 48/70 5/65
f 79/74 84/75 21/18 9/16
f 80/76 85/78 43/19 11/22
f 81/130 86/131 62/105 38/99
